[{"Id":1,"Cedula":"337-80-6448","Nombres":"Johannah","Apellidos":"Sampson","Direccion":"105 Raven Park","Telefono":"804-97-7892","FechaContratacion":"12/28/2016","Salario":6021.33,"Foto":"https://robohash.org/maximequibusdamquod.bmp?size=50x50&set=set1"},
{"Id":2,"Cedula":"210-75-0035","Nombres":"Nesta","Apellidos":"Landrean","Direccion":"5368 Dennis Junction","Telefono":"679-78-7401","FechaContratacion":"5/28/2018","Salario":19023.6,"Foto":"https://robohash.org/atqueteneturcorrupti.bmp?size=50x50&set=set1"},
{"Id":3,"Cedula":"428-67-4097","Nombres":"Rance","Apellidos":"Beckwith","Direccion":"93 Hermina Terrace","Telefono":"378-94-8669","FechaContratacion":"2/9/2019","Salario":19504.53,"Foto":"https://robohash.org/extotamest.png?size=50x50&set=set1"},
{"Id":4,"Cedula":"493-64-9409","Nombres":"Auberon","Apellidos":"Ends","Direccion":"1201 Hovde Place","Telefono":"864-07-5658","FechaContratacion":"5/15/2016","Salario":16386.18,"Foto":"https://robohash.org/repudiandaesuntlaudantium.jpg?size=50x50&set=set1"},
{"Id":5,"Cedula":"201-99-3370","Nombres":"Siana","Apellidos":"Warmington","Direccion":"62 Hagan Road","Telefono":"117-30-8863","FechaContratacion":"5/19/2019","Salario":11992.02,"Foto":"https://robohash.org/exnonlaboriosam.jpg?size=50x50&set=set1"},
{"Id":6,"Cedula":"522-21-5125","Nombres":"Reagan","Apellidos":"Boughtwood","Direccion":"1610 Cherokee Street","Telefono":"367-89-8066","FechaContratacion":"9/3/2017","Salario":18195.2,"Foto":"https://robohash.org/exercitationemnumquamut.bmp?size=50x50&set=set1"},
{"Id":7,"Cedula":"252-34-6788","Nombres":"Cathlene","Apellidos":"Wohler","Direccion":"41015 Nelson Way","Telefono":"360-22-0452","FechaContratacion":"5/22/2020","Salario":5341.7,"Foto":"https://robohash.org/velitquiprovident.bmp?size=50x50&set=set1"},
{"Id":8,"Cedula":"267-11-4319","Nombres":"Em","Apellidos":"Fiddian","Direccion":"85 Monterey Road","Telefono":"281-90-6519","FechaContratacion":"10/28/2017","Salario":7983.49,"Foto":"https://robohash.org/beataeullamquis.jpg?size=50x50&set=set1"},
{"Id":9,"Cedula":"431-86-6978","Nombres":"Marcile","Apellidos":"Gabbitas","Direccion":"19 Prairie Rose Drive","Telefono":"188-26-4019","FechaContratacion":"10/3/2016","Salario":9799.22,"Foto":"https://robohash.org/enimquinatus.jpg?size=50x50&set=set1"},
{"Id":10,"Cedula":"543-13-3720","Nombres":"Agnes","Apellidos":"Powers","Direccion":"93902 John Wall Crossing","Telefono":"144-47-1271","FechaContratacion":"10/19/2015","Salario":18422.53,"Foto":"https://robohash.org/autemquiquasi.bmp?size=50x50&set=set1"},
{"Id":11,"Cedula":"262-77-3201","Nombres":"Erna","Apellidos":"Westphalen","Direccion":"7385 Bartillon Alley","Telefono":"392-68-9831","FechaContratacion":"12/6/2015","Salario":15568.27,"Foto":"https://robohash.org/expeditaeta.jpg?size=50x50&set=set1"},
{"Id":12,"Cedula":"340-63-3419","Nombres":"Meyer","Apellidos":"Grover","Direccion":"8 Atwood Parkway","Telefono":"144-98-3879","FechaContratacion":"2/4/2017","Salario":11767.75,"Foto":"https://robohash.org/temporenonautem.jpg?size=50x50&set=set1"},
{"Id":13,"Cedula":"614-79-0051","Nombres":"Norbie","Apellidos":"Sellor","Direccion":"9016 Dryden Parkway","Telefono":"312-39-4391","FechaContratacion":"8/3/2017","Salario":15023.11,"Foto":"https://robohash.org/etquiiste.png?size=50x50&set=set1"},
{"Id":14,"Cedula":"543-54-6536","Nombres":"Kayla","Apellidos":"Lube","Direccion":"2053 Gale Park","Telefono":"751-22-0831","FechaContratacion":"11/8/2019","Salario":17006.18,"Foto":"https://robohash.org/adipiscieiussint.png?size=50x50&set=set1"},
{"Id":15,"Cedula":"316-18-1516","Nombres":"Lindsey","Apellidos":"Tante","Direccion":"375 Karstens Hill","Telefono":"275-25-0093","FechaContratacion":"2/23/2018","Salario":15662.34,"Foto":"https://robohash.org/repellatconsequunturaut.png?size=50x50&set=set1"},
{"Id":16,"Cedula":"840-83-3053","Nombres":"Averyl","Apellidos":"Ickovicz","Direccion":"78555 Johnson Park","Telefono":"584-10-0427","FechaContratacion":"9/10/2018","Salario":14383.52,"Foto":"https://robohash.org/nonnisivoluptatem.jpg?size=50x50&set=set1"},
{"Id":17,"Cedula":"261-03-9790","Nombres":"Lu","Apellidos":"Kirgan","Direccion":"9 New Castle Drive","Telefono":"367-50-3885","FechaContratacion":"11/22/2019","Salario":8685.12,"Foto":"https://robohash.org/omnisrerumvoluptates.png?size=50x50&set=set1"},
{"Id":18,"Cedula":"457-76-8732","Nombres":"Suki","Apellidos":"Pulham","Direccion":"50 Jenifer Junction","Telefono":"162-84-4337","FechaContratacion":"7/18/2016","Salario":9450.05,"Foto":"https://robohash.org/quaeratillomollitia.bmp?size=50x50&set=set1"},
{"Id":19,"Cedula":"422-88-6263","Nombres":"Anna","Apellidos":"Manley","Direccion":"45596 Oneill Plaza","Telefono":"210-47-6789","FechaContratacion":"6/9/2016","Salario":6262.0,"Foto":"https://robohash.org/undeveroest.bmp?size=50x50&set=set1"},
{"Id":20,"Cedula":"557-11-3028","Nombres":"Allina","Apellidos":"Lappin","Direccion":"37 Rigney Pass","Telefono":"298-46-6524","FechaContratacion":"12/31/2017","Salario":7312.01,"Foto":"https://robohash.org/magnirerumexcepturi.jpg?size=50x50&set=set1"},
{"Id":21,"Cedula":"447-99-8460","Nombres":"Margette","Apellidos":"Armfield","Direccion":"9 Autumn Leaf Court","Telefono":"541-60-8280","FechaContratacion":"3/2/2018","Salario":15353.65,"Foto":"https://robohash.org/exetalias.png?size=50x50&set=set1"},
{"Id":22,"Cedula":"874-57-4563","Nombres":"Trixie","Apellidos":"Dewes","Direccion":"03109 Browning Lane","Telefono":"803-49-8616","FechaContratacion":"4/27/2018","Salario":8926.95,"Foto":"https://robohash.org/eosauttempore.bmp?size=50x50&set=set1"},
{"Id":23,"Cedula":"771-87-0491","Nombres":"Viviana","Apellidos":"Snap","Direccion":"661 Manley Way","Telefono":"642-65-3542","FechaContratacion":"3/6/2019","Salario":11718.07,"Foto":"https://robohash.org/quibusdamaperiamblanditiis.bmp?size=50x50&set=set1"},
{"Id":24,"Cedula":"289-82-5889","Nombres":"Stormy","Apellidos":"Haskins","Direccion":"7138 Ridgeview Place","Telefono":"237-71-6948","FechaContratacion":"7/1/2016","Salario":9499.07,"Foto":"https://robohash.org/voluptatemautlaborum.jpg?size=50x50&set=set1"},
{"Id":25,"Cedula":"780-61-5152","Nombres":"Earl","Apellidos":"Kobsch","Direccion":"5150 Mesta Circle","Telefono":"519-61-2599","FechaContratacion":"1/3/2019","Salario":7872.89,"Foto":"https://robohash.org/istesuscipitpariatur.jpg?size=50x50&set=set1"},
{"Id":26,"Cedula":"521-37-6822","Nombres":"Anastassia","Apellidos":"Tennick","Direccion":"62 Knutson Park","Telefono":"630-32-2154","FechaContratacion":"6/23/2016","Salario":8131.84,"Foto":"https://robohash.org/expeditadoloremreiciendis.jpg?size=50x50&set=set1"},
{"Id":27,"Cedula":"883-68-6289","Nombres":"Fayth","Apellidos":"Koppeck","Direccion":"99657 Porter Plaza","Telefono":"709-64-9769","FechaContratacion":"5/23/2017","Salario":6269.4,"Foto":"https://robohash.org/repellendusquinostrum.png?size=50x50&set=set1"},
{"Id":28,"Cedula":"167-07-4752","Nombres":"Bessie","Apellidos":"Scrammage","Direccion":"34 Drewry Avenue","Telefono":"658-84-4619","FechaContratacion":"12/12/2015","Salario":9578.68,"Foto":"https://robohash.org/quidemetet.jpg?size=50x50&set=set1"},
{"Id":29,"Cedula":"600-42-8429","Nombres":"Brucie","Apellidos":"Sheardown","Direccion":"852 Reindahl Drive","Telefono":"658-07-0971","FechaContratacion":"6/15/2019","Salario":11255.79,"Foto":"https://robohash.org/consequaturnobisvoluptates.jpg?size=50x50&set=set1"},
{"Id":30,"Cedula":"791-65-5954","Nombres":"Addison","Apellidos":"Laphorn","Direccion":"76568 Blackbird Trail","Telefono":"700-59-6481","FechaContratacion":"12/17/2018","Salario":11811.71,"Foto":"https://robohash.org/nemoconsecteturqui.bmp?size=50x50&set=set1"},
{"Id":31,"Cedula":"115-58-5430","Nombres":"Jackqueline","Apellidos":"Balling","Direccion":"7244 Farragut Park","Telefono":"384-60-8062","FechaContratacion":"10/23/2016","Salario":14490.89,"Foto":"https://robohash.org/eosdolorerem.jpg?size=50x50&set=set1"},
{"Id":32,"Cedula":"499-26-0905","Nombres":"Clara","Apellidos":"Haggerstone","Direccion":"1092 Spenser Place","Telefono":"743-26-4474","FechaContratacion":"7/15/2020","Salario":7216.85,"Foto":"https://robohash.org/velmagniut.png?size=50x50&set=set1"},
{"Id":33,"Cedula":"851-27-9462","Nombres":"Kary","Apellidos":"Euston","Direccion":"6028 Sunbrook Point","Telefono":"198-35-7227","FechaContratacion":"12/29/2017","Salario":19572.22,"Foto":"https://robohash.org/sedvoluptasinventore.bmp?size=50x50&set=set1"},
{"Id":34,"Cedula":"438-41-1491","Nombres":"Drusie","Apellidos":"Ward","Direccion":"2 1st Street","Telefono":"776-26-2364","FechaContratacion":"3/18/2019","Salario":7722.76,"Foto":"https://robohash.org/errorautipsam.jpg?size=50x50&set=set1"},
{"Id":35,"Cedula":"888-35-0935","Nombres":"Jose","Apellidos":"Exter","Direccion":"25 Doe Crossing Hill","Telefono":"432-04-5202","FechaContratacion":"6/21/2017","Salario":15471.02,"Foto":"https://robohash.org/quidemeiusut.bmp?size=50x50&set=set1"},
{"Id":36,"Cedula":"140-24-7469","Nombres":"Matthus","Apellidos":"Olivello","Direccion":"78095 Aberg Point","Telefono":"478-29-6133","FechaContratacion":"2/14/2020","Salario":14584.99,"Foto":"https://robohash.org/doloreetvoluptatem.bmp?size=50x50&set=set1"},
{"Id":37,"Cedula":"143-98-1751","Nombres":"Esteban","Apellidos":"Ormonde","Direccion":"7 Sachtjen Lane","Telefono":"248-99-0640","FechaContratacion":"8/23/2018","Salario":5672.57,"Foto":"https://robohash.org/earumquisrepellat.bmp?size=50x50&set=set1"},
{"Id":38,"Cedula":"889-76-0131","Nombres":"Germana","Apellidos":"Jakeman","Direccion":"014 Maywood Terrace","Telefono":"244-95-2952","FechaContratacion":"9/20/2016","Salario":7725.5,"Foto":"https://robohash.org/eadoloremreiciendis.bmp?size=50x50&set=set1"},
{"Id":39,"Cedula":"880-14-9028","Nombres":"Giorgi","Apellidos":"Errichi","Direccion":"739 Leroy Terrace","Telefono":"359-24-9883","FechaContratacion":"1/30/2019","Salario":18791.55,"Foto":"https://robohash.org/autquasisequi.png?size=50x50&set=set1"},
{"Id":40,"Cedula":"177-07-8917","Nombres":"Cyndie","Apellidos":"Polkinghorne","Direccion":"1269 Eastlawn Drive","Telefono":"767-51-5689","FechaContratacion":"9/20/2016","Salario":17176.35,"Foto":"https://robohash.org/eaquosofficia.jpg?size=50x50&set=set1"},
{"Id":41,"Cedula":"563-36-2899","Nombres":"Valida","Apellidos":"Swaden","Direccion":"604 Lien Lane","Telefono":"247-73-8097","FechaContratacion":"1/6/2017","Salario":15613.98,"Foto":"https://robohash.org/nullaquiatotam.bmp?size=50x50&set=set1"},
{"Id":42,"Cedula":"368-08-6168","Nombres":"Sig","Apellidos":"Lukash","Direccion":"1 Katie Point","Telefono":"878-64-7917","FechaContratacion":"11/27/2015","Salario":7315.81,"Foto":"https://robohash.org/errorcupiditatererum.bmp?size=50x50&set=set1"},
{"Id":43,"Cedula":"855-95-4721","Nombres":"Franciskus","Apellidos":"Bwy","Direccion":"95959 Westend Park","Telefono":"148-53-8077","FechaContratacion":"12/7/2017","Salario":5465.6,"Foto":"https://robohash.org/voluptatevoluptatesmagni.jpg?size=50x50&set=set1"},
{"Id":44,"Cedula":"246-46-1307","Nombres":"Everard","Apellidos":"Walley","Direccion":"83 Crescent Oaks Junction","Telefono":"386-07-9844","FechaContratacion":"11/23/2015","Salario":15554.91,"Foto":"https://robohash.org/culpainoccaecati.jpg?size=50x50&set=set1"},
{"Id":45,"Cedula":"434-51-8590","Nombres":"Aleta","Apellidos":"Willans","Direccion":"6150 Merchant Street","Telefono":"743-26-8632","FechaContratacion":"4/13/2016","Salario":19205.54,"Foto":"https://robohash.org/remdoloresin.bmp?size=50x50&set=set1"},
{"Id":46,"Cedula":"296-07-8269","Nombres":"Shari","Apellidos":"Iacovielli","Direccion":"0 Pankratz Pass","Telefono":"493-57-2230","FechaContratacion":"11/5/2017","Salario":7006.32,"Foto":"https://robohash.org/evenietrepudiandaefugiat.jpg?size=50x50&set=set1"},
{"Id":47,"Cedula":"822-68-1194","Nombres":"Elvyn","Apellidos":"Elner","Direccion":"1 Barnett Street","Telefono":"274-60-0665","FechaContratacion":"12/21/2019","Salario":19547.75,"Foto":"https://robohash.org/aperiamautemaut.jpg?size=50x50&set=set1"},
{"Id":48,"Cedula":"209-34-5576","Nombres":"Leland","Apellidos":"Dockerty","Direccion":"6 Carey Alley","Telefono":"345-83-5246","FechaContratacion":"1/10/2020","Salario":14007.82,"Foto":"https://robohash.org/utsitut.bmp?size=50x50&set=set1"},
{"Id":49,"Cedula":"553-51-8659","Nombres":"Holt","Apellidos":"Darnell","Direccion":"57 Cherokee Plaza","Telefono":"660-81-1104","FechaContratacion":"1/24/2019","Salario":16534.81,"Foto":"https://robohash.org/impeditatqueanimi.bmp?size=50x50&set=set1"},
{"Id":50,"Cedula":"480-15-2160","Nombres":"Vernen","Apellidos":"Carnegy","Direccion":"98068 Dunning Terrace","Telefono":"301-44-8883","FechaContratacion":"1/24/2018","Salario":13979.63,"Foto":"https://robohash.org/hicdoloribusquos.jpg?size=50x50&set=set1"},
{"Id":51,"Cedula":"852-02-8541","Nombres":"Xerxes","Apellidos":"Robb","Direccion":"56620 Texas Circle","Telefono":"678-19-9895","FechaContratacion":"6/5/2018","Salario":13465.78,"Foto":"https://robohash.org/quiquisquammolestiae.jpg?size=50x50&set=set1"},
{"Id":52,"Cedula":"653-50-6003","Nombres":"Cheston","Apellidos":"Antonioni","Direccion":"226 Sachtjen Court","Telefono":"684-33-6176","FechaContratacion":"7/12/2017","Salario":8505.42,"Foto":"https://robohash.org/estiniste.jpg?size=50x50&set=set1"},
{"Id":53,"Cedula":"440-36-1365","Nombres":"Berry","Apellidos":"Ricket","Direccion":"70002 Upham Trail","Telefono":"866-65-3639","FechaContratacion":"3/18/2020","Salario":7110.92,"Foto":"https://robohash.org/blanditiisvoluptatemquia.bmp?size=50x50&set=set1"},
{"Id":54,"Cedula":"714-84-4487","Nombres":"Gilberte","Apellidos":"Cossey","Direccion":"32 Fuller Crossing","Telefono":"403-18-8444","FechaContratacion":"5/6/2016","Salario":16426.27,"Foto":"https://robohash.org/etblanditiiscum.jpg?size=50x50&set=set1"},
{"Id":55,"Cedula":"383-69-9503","Nombres":"Solomon","Apellidos":"Coston","Direccion":"224 Corben Street","Telefono":"776-78-2336","FechaContratacion":"11/4/2018","Salario":19944.86,"Foto":"https://robohash.org/consequaturearumoptio.jpg?size=50x50&set=set1"},
{"Id":56,"Cedula":"799-99-4344","Nombres":"Leah","Apellidos":"Merveille","Direccion":"2 Paget Lane","Telefono":"588-63-2670","FechaContratacion":"12/19/2018","Salario":17951.04,"Foto":"https://robohash.org/animiquinon.jpg?size=50x50&set=set1"},
{"Id":57,"Cedula":"598-11-5862","Nombres":"Suzi","Apellidos":"Chapleo","Direccion":"76 Transport Pass","Telefono":"823-35-8198","FechaContratacion":"1/13/2018","Salario":11297.24,"Foto":"https://robohash.org/sitquisaliquid.jpg?size=50x50&set=set1"},
{"Id":58,"Cedula":"528-03-8727","Nombres":"Dinnie","Apellidos":"Tocque","Direccion":"399 Esker Alley","Telefono":"116-77-2211","FechaContratacion":"10/22/2019","Salario":11070.75,"Foto":"https://robohash.org/pariaturetillo.jpg?size=50x50&set=set1"},
{"Id":59,"Cedula":"763-85-1383","Nombres":"Darrell","Apellidos":"Shropsheir","Direccion":"70204 Continental Pass","Telefono":"749-88-2538","FechaContratacion":"6/4/2017","Salario":19670.7,"Foto":"https://robohash.org/fugaetreprehenderit.jpg?size=50x50&set=set1"},
{"Id":60,"Cedula":"880-09-8555","Nombres":"Ichabod","Apellidos":"Staneland","Direccion":"49696 Pearson Street","Telefono":"888-94-2461","FechaContratacion":"12/23/2016","Salario":10438.76,"Foto":"https://robohash.org/dictaquiarem.bmp?size=50x50&set=set1"},
{"Id":61,"Cedula":"161-01-6291","Nombres":"Sampson","Apellidos":"Messum","Direccion":"33875 Kings Avenue","Telefono":"860-49-8825","FechaContratacion":"11/30/2015","Salario":18556.79,"Foto":"https://robohash.org/pariaturporroaperiam.jpg?size=50x50&set=set1"},
{"Id":62,"Cedula":"602-47-7856","Nombres":"Caty","Apellidos":"Leheude","Direccion":"9 Coolidge Court","Telefono":"252-02-2526","FechaContratacion":"11/27/2019","Salario":17568.18,"Foto":"https://robohash.org/expeditaautvoluptatem.jpg?size=50x50&set=set1"},
{"Id":63,"Cedula":"716-55-6767","Nombres":"Gayle","Apellidos":"Bendall","Direccion":"7466 Logan Alley","Telefono":"606-74-4344","FechaContratacion":"12/26/2018","Salario":5188.75,"Foto":"https://robohash.org/odiooptiout.bmp?size=50x50&set=set1"},
{"Id":64,"Cedula":"223-74-0239","Nombres":"April","Apellidos":"Morgan","Direccion":"642 Declaration Park","Telefono":"630-58-5888","FechaContratacion":"10/22/2015","Salario":19202.48,"Foto":"https://robohash.org/doloresnameligendi.bmp?size=50x50&set=set1"},
{"Id":65,"Cedula":"725-92-5260","Nombres":"Boone","Apellidos":"Gauld","Direccion":"374 Columbus Pass","Telefono":"852-42-1090","FechaContratacion":"7/9/2017","Salario":15133.88,"Foto":"https://robohash.org/consequaturnobisblanditiis.png?size=50x50&set=set1"},
{"Id":66,"Cedula":"349-34-0473","Nombres":"Morton","Apellidos":"Pressnell","Direccion":"6849 Prairieview Avenue","Telefono":"429-09-1325","FechaContratacion":"2/6/2017","Salario":15881.39,"Foto":"https://robohash.org/accusantiumautemquo.bmp?size=50x50&set=set1"},
{"Id":67,"Cedula":"675-15-9863","Nombres":"Regina","Apellidos":"Rolfs","Direccion":"142 Hooker Point","Telefono":"705-36-6349","FechaContratacion":"5/31/2017","Salario":17805.73,"Foto":"https://robohash.org/quiaadipiscivoluptate.jpg?size=50x50&set=set1"},
{"Id":68,"Cedula":"320-52-3654","Nombres":"Josh","Apellidos":"Courtney","Direccion":"69 Golf Park","Telefono":"307-43-2067","FechaContratacion":"3/7/2016","Salario":5827.73,"Foto":"https://robohash.org/laudantiumdignissimoset.png?size=50x50&set=set1"},
{"Id":69,"Cedula":"198-89-2064","Nombres":"Abra","Apellidos":"LAbbet","Direccion":"54740 Sherman Court","Telefono":"239-42-3451","FechaContratacion":"7/1/2020","Salario":15061.49,"Foto":"https://robohash.org/aliquidtemporaet.jpg?size=50x50&set=set1"},
{"Id":70,"Cedula":"265-99-2035","Nombres":"Talyah","Apellidos":"Lyst","Direccion":"42 Morningstar Crossing","Telefono":"753-23-7182","FechaContratacion":"10/25/2016","Salario":9631.06,"Foto":"https://robohash.org/quassolutasit.bmp?size=50x50&set=set1"},
{"Id":71,"Cedula":"708-85-3878","Nombres":"Ardenia","Apellidos":"Brodhead","Direccion":"54 Ilene Court","Telefono":"670-97-3747","FechaContratacion":"3/20/2016","Salario":9027.0,"Foto":"https://robohash.org/recusandaeetrepellendus.png?size=50x50&set=set1"},
{"Id":72,"Cedula":"648-94-7010","Nombres":"Sarajane","Apellidos":"Romer","Direccion":"5 Alpine Road","Telefono":"834-89-1898","FechaContratacion":"11/11/2016","Salario":8905.37,"Foto":"https://robohash.org/hicomnisasperiores.jpg?size=50x50&set=set1"},
{"Id":73,"Cedula":"211-04-9945","Nombres":"Anet","Apellidos":"Eilhertsen","Direccion":"5 Moland Court","Telefono":"868-34-7366","FechaContratacion":"9/20/2019","Salario":11643.06,"Foto":"https://robohash.org/cumqueautasperiores.png?size=50x50&set=set1"},
{"Id":74,"Cedula":"704-01-5477","Nombres":"Britta","Apellidos":"Side","Direccion":"1 Bartelt Junction","Telefono":"116-26-5485","FechaContratacion":"1/4/2016","Salario":13017.21,"Foto":"https://robohash.org/evenietquidemaccusamus.bmp?size=50x50&set=set1"},
{"Id":75,"Cedula":"383-48-9720","Nombres":"Geno","Apellidos":"Magne","Direccion":"447 Oak Court","Telefono":"516-67-5956","FechaContratacion":"11/4/2017","Salario":5384.03,"Foto":"https://robohash.org/exercitationemautsequi.jpg?size=50x50&set=set1"},
{"Id":76,"Cedula":"805-98-7287","Nombres":"Bili","Apellidos":"Elders","Direccion":"12442 Darwin Plaza","Telefono":"700-86-2839","FechaContratacion":"12/13/2018","Salario":18257.29,"Foto":"https://robohash.org/fugiatexpeditaquos.jpg?size=50x50&set=set1"},
{"Id":77,"Cedula":"230-52-5754","Nombres":"Kelcy","Apellidos":"Josefsen","Direccion":"50548 Mayfield Hill","Telefono":"483-04-6279","FechaContratacion":"2/15/2016","Salario":14276.56,"Foto":"https://robohash.org/dolorquastenetur.bmp?size=50x50&set=set1"},
{"Id":78,"Cedula":"889-97-5975","Nombres":"Fey","Apellidos":"Lowle","Direccion":"303 Sage Junction","Telefono":"483-24-7352","FechaContratacion":"4/21/2019","Salario":11000.54,"Foto":"https://robohash.org/laudantiuminventorevoluptatem.bmp?size=50x50&set=set1"},
{"Id":79,"Cedula":"730-62-1807","Nombres":"Yank","Apellidos":"Mossom","Direccion":"39 Scoville Pass","Telefono":"425-50-8842","FechaContratacion":"12/3/2018","Salario":7036.17,"Foto":"https://robohash.org/aliasiureest.jpg?size=50x50&set=set1"},
{"Id":80,"Cedula":"509-19-3354","Nombres":"Wald","Apellidos":"Goldwater","Direccion":"24282 Waywood Street","Telefono":"304-16-2413","FechaContratacion":"1/5/2016","Salario":12223.16,"Foto":"https://robohash.org/nobisvoluptatemea.bmp?size=50x50&set=set1"},
{"Id":81,"Cedula":"288-04-8710","Nombres":"Garv","Apellidos":"Jackalin","Direccion":"84 Arrowood Circle","Telefono":"432-30-1610","FechaContratacion":"3/11/2018","Salario":11502.39,"Foto":"https://robohash.org/itaqueperspiciatiset.bmp?size=50x50&set=set1"},
{"Id":82,"Cedula":"454-96-5601","Nombres":"Herrick","Apellidos":"Zorro","Direccion":"8 Colorado Circle","Telefono":"522-08-8802","FechaContratacion":"2/16/2018","Salario":6774.87,"Foto":"https://robohash.org/eumlaborumrerum.bmp?size=50x50&set=set1"},
{"Id":83,"Cedula":"345-54-1801","Nombres":"Delmor","Apellidos":"Yemm","Direccion":"1 Randy Lane","Telefono":"854-67-1478","FechaContratacion":"12/19/2019","Salario":17417.54,"Foto":"https://robohash.org/facilisesteos.jpg?size=50x50&set=set1"},
{"Id":84,"Cedula":"873-46-2549","Nombres":"Pat","Apellidos":"Gratrex","Direccion":"00 Paget Drive","Telefono":"416-77-3887","FechaContratacion":"5/7/2016","Salario":13766.56,"Foto":"https://robohash.org/consequaturautquis.jpg?size=50x50&set=set1"},
{"Id":85,"Cedula":"709-89-2481","Nombres":"Arne","Apellidos":"Sherborn","Direccion":"15883 Main Park","Telefono":"582-64-2513","FechaContratacion":"11/9/2017","Salario":18087.64,"Foto":"https://robohash.org/istequiquis.jpg?size=50x50&set=set1"},
{"Id":86,"Cedula":"405-65-4838","Nombres":"Aviva","Apellidos":"Soulsby","Direccion":"0 Lerdahl Court","Telefono":"753-42-4256","FechaContratacion":"10/26/2017","Salario":6289.92,"Foto":"https://robohash.org/velestcum.jpg?size=50x50&set=set1"},
{"Id":87,"Cedula":"457-86-8089","Nombres":"Kristen","Apellidos":"Craigs","Direccion":"93 8th Hill","Telefono":"232-47-2992","FechaContratacion":"1/3/2018","Salario":9051.64,"Foto":"https://robohash.org/voluptatemcorporisharum.png?size=50x50&set=set1"},
{"Id":88,"Cedula":"555-17-3405","Nombres":"Christophe","Apellidos":"Stenett","Direccion":"6 Spaight Hill","Telefono":"427-60-1930","FechaContratacion":"7/14/2016","Salario":8394.87,"Foto":"https://robohash.org/nisideseruntdelectus.png?size=50x50&set=set1"},
{"Id":89,"Cedula":"407-86-7736","Nombres":"Tadeas","Apellidos":"Spilsburie","Direccion":"18 Tennyson Crossing","Telefono":"684-34-5569","FechaContratacion":"10/2/2017","Salario":17386.55,"Foto":"https://robohash.org/distinctiosithic.png?size=50x50&set=set1"},
{"Id":90,"Cedula":"825-24-5770","Nombres":"Madelin","Apellidos":"Radleigh","Direccion":"59 Larry Alley","Telefono":"548-85-2802","FechaContratacion":"10/18/2015","Salario":11994.73,"Foto":"https://robohash.org/commodidignissimosrerum.bmp?size=50x50&set=set1"},
{"Id":91,"Cedula":"830-38-1763","Nombres":"Lon","Apellidos":"Tuxill","Direccion":"97944 Oak Valley Lane","Telefono":"540-97-5654","FechaContratacion":"8/20/2017","Salario":13877.13,"Foto":"https://robohash.org/maximefacerererum.jpg?size=50x50&set=set1"},
{"Id":92,"Cedula":"858-07-6499","Nombres":"Freida","Apellidos":"Bastian","Direccion":"86 Hayes Crossing","Telefono":"333-35-6743","FechaContratacion":"1/7/2016","Salario":9800.31,"Foto":"https://robohash.org/quolaudantiumassumenda.jpg?size=50x50&set=set1"},
{"Id":93,"Cedula":"803-74-2308","Nombres":"Barty","Apellidos":"Salandino","Direccion":"836 Manitowish Plaza","Telefono":"176-93-7345","FechaContratacion":"2/18/2016","Salario":14625.39,"Foto":"https://robohash.org/omnisquiaquo.bmp?size=50x50&set=set1"},
{"Id":94,"Cedula":"587-14-3619","Nombres":"Cathe","Apellidos":"Desport","Direccion":"1189 Carey Place","Telefono":"797-11-6250","FechaContratacion":"11/23/2015","Salario":17011.71,"Foto":"https://robohash.org/impeditnullaquam.png?size=50x50&set=set1"},
{"Id":95,"Cedula":"307-03-3798","Nombres":"Silvia","Apellidos":"Shier","Direccion":"549 Buell Pass","Telefono":"220-16-9154","FechaContratacion":"12/18/2015","Salario":12581.53,"Foto":"https://robohash.org/etvelrepudiandae.bmp?size=50x50&set=set1"},
{"Id":96,"Cedula":"287-49-4291","Nombres":"Giustina","Apellidos":"Caudwell","Direccion":"2399 New Castle Avenue","Telefono":"832-54-0626","FechaContratacion":"9/16/2019","Salario":10013.44,"Foto":"https://robohash.org/repellendusdoloresexpedita.png?size=50x50&set=set1"},
{"Id":97,"Cedula":"329-15-0924","Nombres":"Lelah","Apellidos":"Santhouse","Direccion":"151 Schlimgen Road","Telefono":"760-71-8069","FechaContratacion":"12/2/2015","Salario":17734.58,"Foto":"https://robohash.org/eumquaevoluptates.bmp?size=50x50&set=set1"},
{"Id":98,"Cedula":"133-15-7662","Nombres":"Magdaia","Apellidos":"Gilbey","Direccion":"0 Ridge Oak Court","Telefono":"874-99-3363","FechaContratacion":"2/12/2017","Salario":11906.17,"Foto":"https://robohash.org/invitaedoloribus.png?size=50x50&set=set1"},
{"Id":99,"Cedula":"473-58-7163","Nombres":"Kittie","Apellidos":"Pasek","Direccion":"0 Crowley Alley","Telefono":"514-16-8425","FechaContratacion":"6/18/2017","Salario":11671.76,"Foto":"https://robohash.org/eavoluptaterem.png?size=50x50&set=set1"},
{"Id":100,"Cedula":"755-82-8914","Nombres":"Stewart","Apellidos":"Culverhouse","Direccion":"16974 Fieldstone Court","Telefono":"864-51-3179","FechaContratacion":"3/31/2016","Salario":10039.25,"Foto":"https://robohash.org/facerequaerecusandae.jpg?size=50x50&set=set1"}]